[
    {
        "model": "coordinador.estudiante",
        "pk": 1,
        "fields": {
            "usuario": 2,
            "edad": 22,
            "telefono": "4567890",
            "foto": "mi_foto",
            "codigo": "200911595" ,
            "estado": true
        }
    },
    {
        "model": "coordinador.estudiante",
        "pk": 2,
        "fields": {
            "usuario": 3,
            "edad": 26,
            "telefono": "4567890",
            "foto": "mi_foto",
            "estado": true
        }
    },
    {
        "model": "coordinador.estudiante",
        "pk": 3,
        "fields": {
            "usuario": 4,
            "edad": 26,
            "telefono": "4567890",
            "foto": "mi_foto",
            "estado": true
        }
    },
    {
        "model": "coordinador.estudiante",
        "pk": 4,
        "fields": {
            "usuario": 5,
            "edad": 21,
            "telefono": "4567890",
            "foto": "mi_foto",
            "estado": true
        }
    },
    {
        "model": "coordinador.estudiante",
        "pk": 5,
        "fields": {
            "usuario": "12",
            "edad": "81",
            "telefono": "9384 7260",
            "foto": "N/A",
            "estado": true
        }
    },

    {
        "model": "coordinador.estudiante",
        "pk": 6,
        "fields": {
            "usuario": "13",
            "edad": "60",
            "telefono": "9730 2880",
            "foto": "N/A",
            "estado": true
        }
    },

    {
        "model": "coordinador.estudiante",
        "pk": 7,
        "fields": {
            "usuario": "14",
            "edad": "61",
            "telefono": "947 166 868",
            "foto": "N/A",
            "estado": true
        }
    },

    {
        "model": "coordinador.estudiante",
        "pk": 8,
        "fields": {
            "usuario": "15",
            "edad": "56",
            "telefono": "658 650 828",
            "foto": "N/A",
            "estado": true
        }
    },

    {
        "model": "coordinador.estudiante",
        "pk": 9,
        "fields": {
            "usuario": "16",
            "edad": "36",
            "telefono": "9760 1778",
            "foto": "N/A",
            "estado": true
        }
    },

    {
        "model": "coordinador.estudiante",
        "pk": 10,
        "fields": {
            "usuario": "17",
            "edad": "48",
            "telefono": "9398 6789",
            "foto": "N/A",
            "estado": true
        }
    },

    {
        "model": "coordinador.estudiante",
        "pk": 11,
        "fields": {
            "usuario": "18",
            "edad": "31",
            "telefono": "975 920 890",
            "foto": "N/A",
            "estado": true
        }
    },

    {
        "model": "coordinador.estudiante",
        "pk": 12,
        "fields": {
            "usuario": "19",
            "edad": "36",
            "telefono": "9480 9591",
            "foto": "N/A",
            "estado": true
        }
    },

    {
        "model": "coordinador.estudiante",
        "pk": 13,
        "fields": {
            "usuario": "20",
            "edad": "55",
            "telefono": "9391 4721",
            "foto": "N/A",
            "estado": true
        }
    },

    {
        "model": "coordinador.estudiante",
        "pk": 14,
        "fields": {
            "usuario": "21",
            "edad": "38",
            "telefono": "9747 6930",
            "foto": "N/A",
            "estado": true
        }
    },

    {
        "model": "coordinador.estudiante",
        "pk": 15,
        "fields": {
            "usuario": "22",
            "edad": "72",
            "telefono": "750 473 770",
            "foto": "N/A",
            "estado": true
        }
    },

    {
        "model": "coordinador.estudiante",
        "pk": 16,
        "fields": {
            "usuario": "23",
            "edad": "56",
            "telefono": "858 237 495",
            "foto": "N/A",
            "estado": true
        }
    },

    {
        "model": "coordinador.estudiante",
        "pk": 17,
        "fields": {
            "usuario": "24",
            "edad": "73",
            "telefono": "9862 8732",
            "foto": "N/A",
            "estado": true
        }
    },

    {
        "model": "coordinador.estudiante",
        "pk": 18,
        "fields": {
            "usuario": "25",
            "edad": "19",
            "telefono": "941 404 980",
            "foto": "N/A",
            "estado": true
        }
    },

    {
        "model": "coordinador.estudiante",
        "pk": 19,
        "fields": {
            "usuario": "26",
            "edad": "69",
            "telefono": "9518 2920",
            "foto": "N/A",
            "estado": true
        }
    },

    {
        "model": "coordinador.estudiante",
        "pk": 20,
        "fields": {
            "usuario": "27",
            "edad": "57",
            "telefono": "9142 9874",
            "foto": "N/A",
            "estado": true
        }
    },

    {
        "model": "coordinador.estudiante",
        "pk": 21,
        "fields": {
            "usuario": "28",
            "edad": "42",
            "telefono": "688 457 819",
            "foto": "N/A",
            "estado": true
        }
    },

    {
        "model": "coordinador.estudiante",
        "pk": 22,
        "fields": {
            "usuario": "29",
            "edad": "83",
            "telefono": "693 592 222",
            "foto": "N/A",
            "estado": true
        }
    },

    {
        "model": "coordinador.estudiante",
        "pk": 23,
        "fields": {
            "usuario": "30",
            "edad": "75",
            "telefono": "981 411 686",
            "foto": "N/A",
            "estado": true
        }
    },

    {
        "model": "coordinador.estudiante",
        "pk": 24,
        "fields": {
            "usuario": "31",
            "edad": "58",
            "telefono": "9450 0387",
            "foto": "N/A",
            "estado": true
        }
    },

    {
        "model": "coordinador.estudiante",
        "pk": 25,
        "fields": {
            "usuario": "32",
            "edad": "54",
            "telefono": "9766 3938",
            "foto": "N/A",
            "estado": true
        }
    },

    {
        "model": "coordinador.estudiante",
        "pk": 26,
        "fields": {
            "usuario": "33",
            "edad": "42",
            "telefono": "9975 0642",
            "foto": "N/A",
            "estado": true
        }
    },

    {
        "model": "coordinador.estudiante",
        "pk": 27,
        "fields": {
            "usuario": "34",
            "edad": "26",
            "telefono": "720 957 274",
            "foto": "N/A",
            "estado": true
        }
    },

    {
        "model": "coordinador.estudiante",
        "pk": 28,
        "fields": {
            "usuario": "35",
            "edad": "54",
            "telefono": "941 945 612",
            "foto": "N/A",
            "estado": true
        }
    },

    {
        "model": "coordinador.estudiante",
        "pk": 29,
        "fields": {
            "usuario": "36",
            "edad": "77",
            "telefono": "755 399 331",
            "foto": "N/A",
            "estado": true
        }
    },

    {
        "model": "coordinador.estudiante",
        "pk": 30,
        "fields": {
            "usuario": "37",
            "edad": "51",
            "telefono": "9975 0922",
            "foto": "N/A",
            "estado": true
        }
    },

    {
        "model": "coordinador.estudiante",
        "pk": 31,
        "fields": {
            "usuario": "38",
            "edad": "75",
            "telefono": "958 768 202",
            "foto": "N/A",
            "estado": true
        }
    },

    {
        "model": "coordinador.estudiante",
        "pk": 32,
        "fields": {
            "usuario": "39",
            "edad": "62",
            "telefono": "9667 4323",
            "foto": "N/A",
            "estado": true
        }
    },

    {
        "model": "coordinador.estudiante",
        "pk": 33,
        "fields": {
            "usuario": "40",
            "edad": "57",
            "telefono": "9555 9952",
            "foto": "N/A",
            "estado": true
        }
    },

    {
        "model": "coordinador.estudiante",
        "pk": 34,
        "fields": {
            "usuario": "41",
            "edad": "72",
            "telefono": "933 256 831",
            "foto": "N/A",
            "estado": true
        }
    },

    {
        "model": "coordinador.estudiante",
        "pk": 35,
        "fields": {
            "usuario": "42",
            "edad": "31",
            "telefono": "9560 4332",
            "foto": "N/A",
            "estado": true
        }
    },

    {
        "model": "coordinador.estudiante",
        "pk": 36,
        "fields": {
            "usuario": "43",
            "edad": "59",
            "telefono": "920 802 429",
            "foto": "N/A",
            "estado": true
        }
    },

    {
        "model": "coordinador.estudiante",
        "pk": 37,
        "fields": {
            "usuario": "44",
            "edad": "23",
            "telefono": "9897 7121",
            "foto": "N/A",
            "estado": true
        }
    },

    {
        "model": "coordinador.estudiante",
        "pk": 38,
        "fields": {
            "usuario": "45",
            "edad": "48",
            "telefono": "627 872 238",
            "foto": "N/A",
            "estado": true
        }
    },

    {
        "model": "coordinador.estudiante",
        "pk": 39,
        "fields": {
            "usuario": "46",
            "edad": "48",
            "telefono": "694 831 216",
            "foto": "N/A",
            "estado": true
        }
    },

    {
        "model": "coordinador.estudiante",
        "pk": 40,
        "fields": {
            "usuario": "47",
            "edad": "83",
            "telefono": "9866 3378",
            "foto": "N/A",
            "estado": true
        }
    },

    {
        "model": "coordinador.estudiante",
        "pk": 41,
        "fields": {
            "usuario": "48",
            "edad": "50",
            "telefono": "9164 7339",
            "foto": "N/A",
            "estado": true
        }
    },

    {
        "model": "coordinador.estudiante",
        "pk": 42,
        "fields": {
            "usuario": "49",
            "edad": "75",
            "telefono": "9468 1340",
            "foto": "N/A",
            "estado": true
        }
    },

    {
        "model": "coordinador.estudiante",
        "pk": 43,
        "fields": {
            "usuario": "50",
            "edad": "70",
            "telefono": "9565 6025",
            "foto": "N/A",
            "estado": true
        }
    },

    {
        "model": "coordinador.estudiante",
        "pk": 44,
        "fields": {
            "usuario": "51",
            "edad": "79",
            "telefono": "982 123 972",
            "foto": "N/A",
            "estado": true
        }
    },

    {
        "model": "coordinador.estudiante",
        "pk": 45,
        "fields": {
            "usuario": "52",
            "edad": "29",
            "telefono": "9676 4150",
            "foto": "N/A",
            "estado": true
        }
    },

    {
        "model": "coordinador.estudiante",
        "pk": 46,
        "fields": {
            "usuario": "53",
            "edad": "50",
            "telefono": "669 721 734",
            "foto": "N/A",
            "estado": true
        }
    },

    {
        "model": "coordinador.estudiante",
        "pk": 47,
        "fields": {
            "usuario": "54",
            "edad": "25",
            "telefono": "761 233 604",
            "foto": "N/A",
            "estado": true
        }
    },

    {
        "model": "coordinador.estudiante",
        "pk": 48,
        "fields": {
            "usuario": "55",
            "edad": "24",
            "telefono": "9797 0802",
            "foto": "N/A",
            "estado": true
        }
    },

    {
        "model": "coordinador.estudiante",
        "pk": 49,
        "fields": {
            "usuario": "56",
            "edad": "79",
            "telefono": "738 014 176",
            "foto": "N/A",
            "estado": true
        }
    },

    {
        "model": "coordinador.estudiante",
        "pk": 50,
        "fields": {
            "usuario": "57",
            "edad": "58",
            "telefono": "9117 7635",
            "foto": "N/A",
            "estado": true
        }
    },

    {
        "model": "coordinador.estudiante",
        "pk": 51,
        "fields": {
            "usuario": "58",
            "edad": "38",
            "telefono": "952 255 304",
            "foto": "N/A",
            "estado": true
        }
    },

    {
        "model": "coordinador.estudiante",
        "pk": 52,
        "fields": {
            "usuario": "59",
            "edad": "72",
            "telefono": "9376 4589",
            "foto": "N/A",
            "estado": true
        }
    },

    {
        "model": "coordinador.estudiante",
        "pk": 53,
        "fields": {
            "usuario": "60",
            "edad": "25",
            "telefono": "9575 9897",
            "foto": "N/A",
            "estado": true
        }
    },

    {
        "model": "coordinador.estudiante",
        "pk": 54,
        "fields": {
            "usuario": "61",
            "edad": "42",
            "telefono": "848 545 848",
            "foto": "N/A",
            "estado": true
        }
    },

    {
        "model": "coordinador.estudiante",
        "pk": 55,
        "fields": {
            "usuario": "62",
            "edad": "26",
            "telefono": "645 046 313",
            "foto": "N/A",
            "estado": true
        }
    },

    {
        "model": "coordinador.estudiante",
        "pk": 56,
        "fields": {
            "usuario": "63",
            "edad": "43",
            "telefono": "9761 2111",
            "foto": "N/A",
            "estado": true
        }
    },

    {
        "model": "coordinador.estudiante",
        "pk": 57,
        "fields": {
            "usuario": "64",
            "edad": "23",
            "telefono": "717 168 947",
            "foto": "N/A",
            "estado": true
        }
    },

    {
        "model": "coordinador.estudiante",
        "pk": 58,
        "fields": {
            "usuario": "65",
            "edad": "60",
            "telefono": "612 431 017",
            "foto": "N/A",
            "estado": true
        }
    },

    {
        "model": "coordinador.estudiante",
        "pk": 59,
        "fields": {
            "usuario": "66",
            "edad": "36",
            "telefono": "9546 4562",
            "foto": "N/A",
            "estado": true
        }
    },

    {
        "model": "coordinador.estudiante",
        "pk": 60,
        "fields": {
            "usuario": "67",
            "edad": "32",
            "telefono": "957 389 597",
            "foto": "N/A",
            "estado": true
        }
    },

    {
        "model": "coordinador.estudiante",
        "pk": 61,
        "fields": {
            "usuario": "68",
            "edad": "19",
            "telefono": "9535 4969",
            "foto": "N/A",
            "estado": true
        }
    },

    {
        "model": "coordinador.estudiante",
        "pk": 62,
        "fields": {
            "usuario": "69",
            "edad": "79",
            "telefono": "760 980 510",
            "foto": "N/A",
            "estado": true
        }
    },

    {
        "model": "coordinador.estudiante",
        "pk": 63,
        "fields": {
            "usuario": "70",
            "edad": "86",
            "telefono": "822 208 954",
            "foto": "N/A",
            "estado": true
        }
    },

    {
        "model": "coordinador.estudiante",
        "pk": 64,
        "fields": {
            "usuario": "71",
            "edad": "23",
            "telefono": "9181 2599",
            "foto": "N/A",
            "estado": true
        }
    },

    {
        "model": "coordinador.estudiante",
        "pk": 65,
        "fields": {
            "usuario": "72",
            "edad": "41",
            "telefono": "687 647 842",
            "foto": "N/A",
            "estado": true
        }
    },

    {
        "model": "coordinador.estudiante",
        "pk": 66,
        "fields": {
            "usuario": "73",
            "edad": "66",
            "telefono": "982 176 100",
            "foto": "N/A",
            "estado": true
        }
    },

    {
        "model": "coordinador.estudiante",
        "pk": 67,
        "fields": {
            "usuario": "74",
            "edad": "78",
            "telefono": "9687 8369",
            "foto": "N/A",
            "estado": true
        }
    },

    {
        "model": "coordinador.estudiante",
        "pk": 68,
        "fields": {
            "usuario": "75",
            "edad": "40",
            "telefono": "983 988 090",
            "foto": "N/A",
            "estado": true
        }
    },

    {
        "model": "coordinador.estudiante",
        "pk": 69,
        "fields": {
            "usuario": "76",
            "edad": "29",
            "telefono": "713 918 433",
            "foto": "N/A",
            "estado": true
        }
    },

    {
        "model": "coordinador.estudiante",
        "pk": 70,
        "fields": {
            "usuario": "77",
            "edad": "57",
            "telefono": "9527 4923",
            "foto": "N/A",
            "estado": true
        }
    },

    {
        "model": "coordinador.estudiante",
        "pk": 71,
        "fields": {
            "usuario": "78",
            "edad": "58",
            "telefono": "9696 9170",
            "foto": "N/A",
            "estado": true
        }
    },

    {
        "model": "coordinador.estudiante",
        "pk": 72,
        "fields": {
            "usuario": "79",
            "edad": "80",
            "telefono": "9462 1813",
            "foto": "N/A",
            "estado": true
        }
    },

    {
        "model": "coordinador.estudiante",
        "pk": 73,
        "fields": {
            "usuario": "80",
            "edad": "61",
            "telefono": "9734 8113",
            "foto": "N/A",
            "estado": true
        }
    },

    {
        "model": "coordinador.estudiante",
        "pk": 74,
        "fields": {
            "usuario": "81",
            "edad": "20",
            "telefono": "9594 8397",
            "foto": "N/A",
            "estado": true
        }
    },

    {
        "model": "coordinador.estudiante",
        "pk": 75,
        "fields": {
            "usuario": "82",
            "edad": "67",
            "telefono": "9414 5512",
            "foto": "N/A",
            "estado": true
        }
    },

    {
        "model": "coordinador.estudiante",
        "pk": 76,
        "fields": {
            "usuario": "83",
            "edad": "50",
            "telefono": "9795 0033",
            "foto": "N/A",
            "estado": true
        }
    },

    {
        "model": "coordinador.estudiante",
        "pk": 77,
        "fields": {
            "usuario": "84",
            "edad": "51",
            "telefono": "932 832 920",
            "foto": "N/A",
            "estado": true
        }
    },

    {
        "model": "coordinador.estudiante",
        "pk": 78,
        "fields": {
            "usuario": "85",
            "edad": "56",
            "telefono": "955 843 293",
            "foto": "N/A",
            "estado": true
        }
    },

    {
        "model": "coordinador.estudiante",
        "pk": 79,
        "fields": {
            "usuario": "86",
            "edad": "74",
            "telefono": "948 816 219",
            "foto": "N/A",
            "estado": true
        }
    },

    {
        "model": "coordinador.estudiante",
        "pk": 80,
        "fields": {
            "usuario": "87",
            "edad": "56",
            "telefono": "914 460 463",
            "foto": "N/A",
            "estado": true
        }
    },

    {
        "model": "coordinador.estudiante",
        "pk": 81,
        "fields": {
            "usuario": "88",
            "edad": "64",
            "telefono": "9186 2888",
            "foto": "N/A",
            "estado": true
        }
    },

    {
        "model": "coordinador.estudiante",
        "pk": 82,
        "fields": {
            "usuario": "89",
            "edad": "57",
            "telefono": "9110 4997",
            "foto": "N/A",
            "estado": true
        }
    },

    {
        "model": "coordinador.estudiante",
        "pk": 83,
        "fields": {
            "usuario": "90",
            "edad": "67",
            "telefono": "9866 4823",
            "foto": "N/A",
            "estado": true
        }
    },

    {
        "model": "coordinador.estudiante",
        "pk": 84,
        "fields": {
            "usuario": "91",
            "edad": "48",
            "telefono": "643 233 845",
            "foto": "N/A",
            "estado": true
        }
    },

    {
        "model": "coordinador.estudiante",
        "pk": 85,
        "fields": {
            "usuario": "92",
            "edad": "81",
            "telefono": "9511 2386",
            "foto": "N/A",
            "estado": true
        }
    },

    {
        "model": "coordinador.estudiante",
        "pk": 86,
        "fields": {
            "usuario": "93",
            "edad": "35",
            "telefono": "659 920 886",
            "foto": "N/A",
            "estado": true
        }
    },

    {
        "model": "coordinador.estudiante",
        "pk": 87,
        "fields": {
            "usuario": "94",
            "edad": "69",
            "telefono": "9157 4008",
            "foto": "N/A",
            "estado": true
        }
    },

    {
        "model": "coordinador.estudiante",
        "pk": 88,
        "fields": {
            "usuario": "95",
            "edad": "31",
            "telefono": "9923 3510",
            "foto": "N/A",
            "estado": true
        }
    },

    {
        "model": "coordinador.estudiante",
        "pk": 89,
        "fields": {
            "usuario": "96",
            "edad": "50",
            "telefono": "9758 0795",
            "foto": "N/A",
            "estado": true
        }
    },

    {
        "model": "coordinador.estudiante",
        "pk": 90,
        "fields": {
            "usuario": "97",
            "edad": "32",
            "telefono": "9680 9764",
            "foto": "N/A",
            "estado": true
        }
    },

    {
        "model": "coordinador.estudiante",
        "pk": 91,
        "fields": {
            "usuario": "98",
            "edad": "60",
            "telefono": "642 001 639",
            "foto": "N/A",
            "estado": true
        }
    },

    {
        "model": "coordinador.estudiante",
        "pk": 92,
        "fields": {
            "usuario": "99",
            "edad": "75",
            "telefono": "848 421 287",
            "foto": "N/A",
            "estado": true
        }
    },

    {
        "model": "coordinador.estudiante",
        "pk": 93,
        "fields": {
            "usuario": "100",
            "edad": "22",
            "telefono": "9529 5063",
            "foto": "N/A",
            "estado": true
        }
    },

    {
        "model": "coordinador.estudiante",
        "pk": 94,
        "fields": {
            "usuario": "101",
            "edad": "46",
            "telefono": "9531 4485",
            "foto": "N/A",
            "estado": true
        }
    },

    {
        "model": "coordinador.estudiante",
        "pk": 95,
        "fields": {
            "usuario": "102",
            "edad": "53",
            "telefono": "9611 3808",
            "foto": "N/A",
            "estado": true
        }
    },

    {
        "model": "coordinador.estudiante",
        "pk": 96,
        "fields": {
            "usuario": "103",
            "edad": "20",
            "telefono": "9864 3553",
            "foto": "N/A",
            "estado": true
        }
    },

    {
        "model": "coordinador.estudiante",
        "pk": 97,
        "fields": {
            "usuario": "104",
            "edad": "25",
            "telefono": "9657 8097",
            "foto": "N/A",
            "estado": true
        }
    },

    {
        "model": "coordinador.estudiante",
        "pk": 98,
        "fields": {
            "usuario": "105",
            "edad": "84",
            "telefono": "9186 1028",
            "foto": "N/A",
            "estado": true
        }
    },

    {
        "model": "coordinador.estudiante",
        "pk": 99,
        "fields": {
            "usuario": "106",
            "edad": "39",
            "telefono": "912 214 146",
            "foto": "N/A",
            "estado": true
        }
    },

    {
        "model": "coordinador.estudiante",
        "pk": 100,
        "fields": {
            "usuario": "107",
            "edad": "34",
            "telefono": "9426 2966",
            "foto": "N/A",
            "estado": true
        }
    },

    {
        "model": "coordinador.estudiante",
        "pk": 101,
        "fields": {
            "usuario": "108",
            "edad": "85",
            "telefono": "958 664 869",
            "foto": "N/A",
            "estado": true
        }
    },

    {
        "model": "coordinador.estudiante",
        "pk": 102,
        "fields": {
            "usuario": "109",
            "edad": "56",
            "telefono": "9415 4491",
            "foto": "N/A",
            "estado": true
        }
    },

    {
        "model": "coordinador.estudiante",
        "pk": 103,
        "fields": {
            "usuario": "110",
            "edad": "31",
            "telefono": "9119 9329",
            "foto": "N/A",
            "estado": true
        }
    },

    {
        "model": "coordinador.estudiante",
        "pk": 104,
        "fields": {
            "usuario": "111",
            "edad": "85",
            "telefono": "977 987 497",
            "foto": "N/A",
            "estado": true
        }
    },

    {
        "model": "coordinador.estudiante",
        "pk": 105,
        "fields": {
            "usuario": "112",
            "edad": "35",
            "telefono": "957 223 168",
            "foto": "N/A",
            "estado": true
        }
    },

    {
        "model": "coordinador.estudiante",
        "pk": 106,
        "fields": {
            "usuario": "113",
            "edad": "63",
            "telefono": "9487 8695",
            "foto": "N/A",
            "estado": true
        }
    },

    {
        "model": "coordinador.estudiante",
        "pk": 107,
        "fields": {
            "usuario": "114",
            "edad": "35",
            "telefono": "638 617 547",
            "foto": "N/A",
            "estado": true
        }
    },

    {
        "model": "coordinador.estudiante",
        "pk": 108,
        "fields": {
            "usuario": "115",
            "edad": "36",
            "telefono": "958 286 102",
            "foto": "N/A",
            "estado": true
        }
    },

    {
        "model": "coordinador.estudiante",
        "pk": 109,
        "fields": {
            "usuario": "116",
            "edad": "68",
            "telefono": "921 796 191",
            "foto": "N/A",
            "estado": true
        }
    },

    {
        "model": "coordinador.estudiante",
        "pk": 110,
        "fields": {
            "usuario": "117",
            "edad": "56",
            "telefono": "957 599 612",
            "foto": "N/A",
            "estado": true
        }
    },

    {
        "model": "coordinador.estudiante",
        "pk": 111,
        "fields": {
            "usuario": "118",
            "edad": "58",
            "telefono": "9726 4766",
            "foto": "N/A",
            "estado": true
        }
    },

    {
        "model": "coordinador.estudiante",
        "pk": 112,
        "fields": {
            "usuario": "119",
            "edad": "48",
            "telefono": "9795 8532",
            "foto": "N/A",
            "estado": true
        }
    },

    {
        "model": "coordinador.estudiante",
        "pk": 113,
        "fields": {
            "usuario": "120",
            "edad": "31",
            "telefono": "9895 1024",
            "foto": "N/A",
            "estado": true
        }
    },

    {
        "model": "coordinador.estudiante",
        "pk": 114,
        "fields": {
            "usuario": "121",
            "edad": "42",
            "telefono": "959 156 377",
            "foto": "N/A",
            "estado": true
        }
    },

    {
        "model": "coordinador.estudiante",
        "pk": 115,
        "fields": {
            "usuario": "122",
            "edad": "55",
            "telefono": "9586 1044",
            "foto": "N/A",
            "estado": true
        }
    },

    {
        "model": "coordinador.estudiante",
        "pk": 116,
        "fields": {
            "usuario": "123",
            "edad": "58",
            "telefono": "868 194 906",
            "foto": "N/A",
            "estado": true
        }
    },

    {
        "model": "coordinador.estudiante",
        "pk": 117,
        "fields": {
            "usuario": "124",
            "edad": "33",
            "telefono": "914 079 114",
            "foto": "N/A",
            "estado": true
        }
    },

    {
        "model": "coordinador.estudiante",
        "pk": 118,
        "fields": {
            "usuario": "125",
            "edad": "34",
            "telefono": "877 960 680",
            "foto": "N/A",
            "estado": true
        }
    },

    {
        "model": "coordinador.estudiante",
        "pk": 119,
        "fields": {
            "usuario": "126",
            "edad": "57",
            "telefono": "9384 7855",
            "foto": "N/A",
            "estado": true
        }
    },

    {
        "model": "coordinador.estudiante",
        "pk": 120,
        "fields": {
            "usuario": "127",
            "edad": "32",
            "telefono": "619 062 088",
            "foto": "N/A",
            "estado": true
        }
    },

    {
        "model": "coordinador.estudiante",
        "pk": 121,
        "fields": {
            "usuario": "128",
            "edad": "79",
            "telefono": "9420 1659",
            "foto": "N/A",
            "estado": true
        }
    },

    {
        "model": "coordinador.estudiante",
        "pk": 122,
        "fields": {
            "usuario": "129",
            "edad": "26",
            "telefono": "822 699 563",
            "foto": "N/A",
            "estado": true
        }
    },

    {
        "model": "coordinador.estudiante",
        "pk": 123,
        "fields": {
            "usuario": "130",
            "edad": "67",
            "telefono": "942 905 901",
            "foto": "N/A",
            "estado": true
        }
    },

    {
        "model": "coordinador.estudiante",
        "pk": 124,
        "fields": {
            "usuario": "131",
            "edad": "36",
            "telefono": "784 968 808",
            "foto": "N/A",
            "estado": true
        }
    },

    {
        "model": "coordinador.estudiante",
        "pk": 125,
        "fields": {
            "usuario": "132",
            "edad": "42",
            "telefono": "9780 6375",
            "foto": "N/A",
            "estado": true
        }
    },

    {
        "model": "coordinador.estudiante",
        "pk": 126,
        "fields": {
            "usuario": "133",
            "edad": "52",
            "telefono": "710 469 574",
            "foto": "N/A",
            "estado": true
        }
    },

    {
        "model": "coordinador.estudiante",
        "pk": 127,
        "fields": {
            "usuario": "134",
            "edad": "22",
            "telefono": "848 527 930",
            "foto": "N/A",
            "estado": true
        }
    },

    {
        "model": "coordinador.estudiante",
        "pk": 128,
        "fields": {
            "usuario": "135",
            "edad": "77",
            "telefono": "9324 4500",
            "foto": "N/A",
            "estado": true
        }
    },

    {
        "model": "coordinador.estudiante",
        "pk": 129,
        "fields": {
            "usuario": "136",
            "edad": "81",
            "telefono": "9125 2796",
            "foto": "N/A",
            "estado": true
        }
    },

    {
        "model": "coordinador.estudiante",
        "pk": 130,
        "fields": {
            "usuario": "137",
            "edad": "20",
            "telefono": "9557 8374",
            "foto": "N/A",
            "estado": true
        }
    },

    {
        "model": "coordinador.estudiante",
        "pk": 131,
        "fields": {
            "usuario": "138",
            "edad": "35",
            "telefono": "9710 7282",
            "foto": "N/A",
            "estado": true
        }
    },

    {
        "model": "coordinador.estudiante",
        "pk": 132,
        "fields": {
            "usuario": "139",
            "edad": "25",
            "telefono": "675 834 417",
            "foto": "N/A",
            "estado": true
        }
    },

    {
        "model": "coordinador.estudiante",
        "pk": 133,
        "fields": {
            "usuario": "140",
            "edad": "30",
            "telefono": "927 983 024",
            "foto": "N/A",
            "estado": true
        }
    },

    {
        "model": "coordinador.estudiante",
        "pk": 134,
        "fields": {
            "usuario": "141",
            "edad": "73",
            "telefono": "726 421 733",
            "foto": "N/A",
            "estado": true
        }
    },

    {
        "model": "coordinador.estudiante",
        "pk": 135,
        "fields": {
            "usuario": "142",
            "edad": "79",
            "telefono": "966 319 279",
            "foto": "N/A",
            "estado": true
        }
    },

    {
        "model": "coordinador.estudiante",
        "pk": 136,
        "fields": {
            "usuario": "143",
            "edad": "42",
            "telefono": "923 721 607",
            "foto": "N/A",
            "estado": true
        }
    },

    {
        "model": "coordinador.estudiante",
        "pk": 137,
        "fields": {
            "usuario": "144",
            "edad": "81",
            "telefono": "9382 0967",
            "foto": "N/A",
            "estado": true
        }
    },

    {
        "model": "coordinador.estudiante",
        "pk": 138,
        "fields": {
            "usuario": "145",
            "edad": "50",
            "telefono": "9830 6492",
            "foto": "N/A",
            "estado": true
        }
    },

    {
        "model": "coordinador.estudiante",
        "pk": 139,
        "fields": {
            "usuario": "146",
            "edad": "27",
            "telefono": "966 860 215",
            "foto": "N/A",
            "estado": true
        }
    },

    {
        "model": "coordinador.estudiante",
        "pk": 140,
        "fields": {
            "usuario": "147",
            "edad": "42",
            "telefono": "9569 4571",
            "foto": "N/A",
            "estado": true
        }
    },

    {
        "model": "coordinador.estudiante",
        "pk": 141,
        "fields": {
            "usuario": "148",
            "edad": "27",
            "telefono": "792 820 336",
            "foto": "N/A",
            "estado": true
        }
    },

    {
        "model": "coordinador.estudiante",
        "pk": 142,
        "fields": {
            "usuario": "149",
            "edad": "34",
            "telefono": "9951 5976",
            "foto": "N/A",
            "estado": true
        }
    },

    {
        "model": "coordinador.estudiante",
        "pk": 143,
        "fields": {
            "usuario": "150",
            "edad": "74",
            "telefono": "9921 8245",
            "foto": "N/A",
            "estado": true
        }
    },

    {
        "model": "coordinador.estudiante",
        "pk": 144,
        "fields": {
            "usuario": "151",
            "edad": "47",
            "telefono": "9319 7265",
            "foto": "N/A",
            "estado": true
        }
    },

    {
        "model": "coordinador.estudiante",
        "pk": 145,
        "fields": {
            "usuario": "152",
            "edad": "33",
            "telefono": "964 346 153",
            "foto": "N/A",
            "estado": true
        }
    },

    {
        "model": "coordinador.estudiante",
        "pk": 146,
        "fields": {
            "usuario": "153",
            "edad": "65",
            "telefono": "716 834 999",
            "foto": "N/A",
            "estado": true
        }
    },

    {
        "model": "coordinador.estudiante",
        "pk": 147,
        "fields": {
            "usuario": "154",
            "edad": "69",
            "telefono": "662 028 939",
            "foto": "N/A",
            "estado": true
        }
    },

    {
        "model": "coordinador.estudiante",
        "pk": 148,
        "fields": {
            "usuario": "155",
            "edad": "54",
            "telefono": "9318 3035",
            "foto": "N/A",
            "estado": true
        }
    },

    {
        "model": "coordinador.estudiante",
        "pk": 149,
        "fields": {
            "usuario": "156",
            "edad": "43",
            "telefono": "9884 3728",
            "foto": "N/A",
            "estado": true
        }
    },

    {
        "model": "coordinador.estudiante",
        "pk": 150,
        "fields": {
            "usuario": "157",
            "edad": "29",
            "telefono": "877 070 251",
            "foto": "N/A",
            "estado": true
        }
    }

]