[
    {
        "model": "coordinador.programaestudiante",
        "pk": 1,
        "fields": {
            "actual": true,
            "programa": 6,
            "estudiante": 1
        }
    },

    {
        "model": "coordinador.programaestudiante",
        "pk": 2,
        "fields": {
            "actual": true,
            "programa": 6,
            "estudiante": 2
        }
    },

    {
        "model": "coordinador.programaestudiante",
        "pk": 3,
        "fields": {
            "actual": true,
            "programa": 6,
            "estudiante": 3
        }
    },

    {
        "model": "coordinador.programaestudiante",
        "pk": 4,
        "fields": {
            "actual": true,
            "programa": 6,
            "estudiante": 4
        }
    },

    {
        "model": "coordinador.programaestudiante",
        "pk": 5,
        "fields": {
            "actual": true,
            "programa": 6,
            "estudiante": 5
        }
    },

    {
        "model": "coordinador.programaestudiante",
        "pk": 6,
        "fields": {
            "actual": true,
            "programa": 6,
            "estudiante": 6
        }
    },

    {
        "model": "coordinador.programaestudiante",
        "pk": 7,
        "fields": {
            "actual": true,
            "programa": 6,
            "estudiante": 7
        }
    },

    {
        "model": "coordinador.programaestudiante",
        "pk": 8,
        "fields": {
            "actual": true,
            "programa": 6,
            "estudiante": 8
        }
    },

    {
        "model": "coordinador.programaestudiante",
        "pk": 9,
        "fields": {
            "actual": true,
            "programa": 6,
            "estudiante": 9
        }
    },

    {
        "model": "coordinador.programaestudiante",
        "pk": 10,
        "fields": {
            "actual": true,
            "programa": 6,
            "estudiante": 10
        }
    },

    {
        "model": "coordinador.programaestudiante",
        "pk": 11,
        "fields": {
            "actual": true,
            "programa": 6,
            "estudiante": 11
        }
    },

    {
        "model": "coordinador.programaestudiante",
        "pk": 12,
        "fields": {
            "actual": true,
            "programa": 6,
            "estudiante": 12
        }
    },

    {
        "model": "coordinador.programaestudiante",
        "pk": 13,
        "fields": {
            "actual": true,
            "programa": 6,
            "estudiante": 13
        }
    },

    {
        "model": "coordinador.programaestudiante",
        "pk": 14,
        "fields": {
            "actual": true,
            "programa": 6,
            "estudiante": 14
        }
    },

    {
        "model": "coordinador.programaestudiante",
        "pk": 15,
        "fields": {
            "actual": true,
            "programa": 6,
            "estudiante": 15
        }
    },

    {
        "model": "coordinador.programaestudiante",
        "pk": 16,
        "fields": {
            "actual": true,
            "programa": 6,
            "estudiante": 16
        }
    },

    {
        "model": "coordinador.programaestudiante",
        "pk": 17,
        "fields": {
            "actual": true,
            "programa": 6,
            "estudiante": 17
        }
    },

    {
        "model": "coordinador.programaestudiante",
        "pk": 18,
        "fields": {
            "actual": true,
            "programa": 6,
            "estudiante": 18
        }
    },

    {
        "model": "coordinador.programaestudiante",
        "pk": 19,
        "fields": {
            "actual": true,
            "programa": 6,
            "estudiante": 19
        }
    },

    {
        "model": "coordinador.programaestudiante",
        "pk": 20,
        "fields": {
            "actual": true,
            "programa": 6,
            "estudiante": 20
        }
    },

    {
        "model": "coordinador.programaestudiante",
        "pk": 21,
        "fields": {
            "actual": true,
            "programa": 6,
            "estudiante": 21
        }
    },

    {
        "model": "coordinador.programaestudiante",
        "pk": 22,
        "fields": {
            "actual": true,
            "programa": 6,
            "estudiante": 22
        }
    },

    {
        "model": "coordinador.programaestudiante",
        "pk": 23,
        "fields": {
            "actual": true,
            "programa": 6,
            "estudiante": 23
        }
    },

    {
        "model": "coordinador.programaestudiante",
        "pk": 24,
        "fields": {
            "actual": true,
            "programa": 6,
            "estudiante": 24
        }
    },

    {
        "model": "coordinador.programaestudiante",
        "pk": 25,
        "fields": {
            "actual": true,
            "programa": 6,
            "estudiante": 25
        }
    },

    {
        "model": "coordinador.programaestudiante",
        "pk": 26,
        "fields": {
            "actual": true,
            "programa": 5,
            "estudiante": 26
        }
    },

    {
        "model": "coordinador.programaestudiante",
        "pk": 27,
        "fields": {
            "actual": true,
            "programa": 5,
            "estudiante": 27
        }
    },

    {
        "model": "coordinador.programaestudiante",
        "pk": 28,
        "fields": {
            "actual": true,
            "programa": 5,
            "estudiante": 28
        }
    },

    {
        "model": "coordinador.programaestudiante",
        "pk": 29,
        "fields": {
            "actual": true,
            "programa": 5,
            "estudiante": 29
        }
    },

    {
        "model": "coordinador.programaestudiante",
        "pk": 30,
        "fields": {
            "actual": true,
            "programa": 5,
            "estudiante": 30
        }
    },

    {
        "model": "coordinador.programaestudiante",
        "pk": 31,
        "fields": {
            "actual": true,
            "programa": 5,
            "estudiante": 31
        }
    },

    {
        "model": "coordinador.programaestudiante",
        "pk": 32,
        "fields": {
            "actual": true,
            "programa": 5,
            "estudiante": 32
        }
    },

    {
        "model": "coordinador.programaestudiante",
        "pk": 33,
        "fields": {
            "actual": true,
            "programa": 5,
            "estudiante": 33
        }
    },

    {
        "model": "coordinador.programaestudiante",
        "pk": 34,
        "fields": {
            "actual": true,
            "programa": 5,
            "estudiante": 34
        }
    },

    {
        "model": "coordinador.programaestudiante",
        "pk": 35,
        "fields": {
            "actual": true,
            "programa": 5,
            "estudiante": 35
        }
    },

    {
        "model": "coordinador.programaestudiante",
        "pk": 36,
        "fields": {
            "actual": true,
            "programa": 5,
            "estudiante": 36
        }
    },

    {
        "model": "coordinador.programaestudiante",
        "pk": 37,
        "fields": {
            "actual": true,
            "programa": 5,
            "estudiante": 37
        }
    },

    {
        "model": "coordinador.programaestudiante",
        "pk": 38,
        "fields": {
            "actual": true,
            "programa": 5,
            "estudiante": 38
        }
    },

    {
        "model": "coordinador.programaestudiante",
        "pk": 39,
        "fields": {
            "actual": true,
            "programa": 5,
            "estudiante": 39
        }
    },

    {
        "model": "coordinador.programaestudiante",
        "pk": 40,
        "fields": {
            "actual": true,
            "programa": 5,
            "estudiante": 40
        }
    },

    {
        "model": "coordinador.programaestudiante",
        "pk": 41,
        "fields": {
            "actual": true,
            "programa": 5,
            "estudiante": 41
        }
    },

    {
        "model": "coordinador.programaestudiante",
        "pk": 42,
        "fields": {
            "actual": true,
            "programa": 5,
            "estudiante": 42
        }
    },

    {
        "model": "coordinador.programaestudiante",
        "pk": 43,
        "fields": {
            "actual": true,
            "programa": 5,
            "estudiante": 43
        }
    },

    {
        "model": "coordinador.programaestudiante",
        "pk": 44,
        "fields": {
            "actual": true,
            "programa": 5,
            "estudiante": 44
        }
    },

    {
        "model": "coordinador.programaestudiante",
        "pk": 45,
        "fields": {
            "actual": true,
            "programa": 5,
            "estudiante": 45
        }
    },

    {
        "model": "coordinador.programaestudiante",
        "pk": 46,
        "fields": {
            "actual": true,
            "programa": 5,
            "estudiante": 46
        }
    },

    {
        "model": "coordinador.programaestudiante",
        "pk": 47,
        "fields": {
            "actual": true,
            "programa": 5,
            "estudiante": 47
        }
    },

    {
        "model": "coordinador.programaestudiante",
        "pk": 48,
        "fields": {
            "actual": true,
            "programa": 5,
            "estudiante": 48
        }
    },

    {
        "model": "coordinador.programaestudiante",
        "pk": 49,
        "fields": {
            "actual": true,
            "programa": 5,
            "estudiante": 49
        }
    },

    {
        "model": "coordinador.programaestudiante",
        "pk": 50,
        "fields": {
            "actual": true,
            "programa": 5,
            "estudiante": 50
        }
    },

    {
        "model": "coordinador.programaestudiante",
        "pk": 51,
        "fields": {
            "actual": true,
            "programa": 4,
            "estudiante": 51
        }
    },

    {
        "model": "coordinador.programaestudiante",
        "pk": 52,
        "fields": {
            "actual": true,
            "programa": 4,
            "estudiante": 52
        }
    },

    {
        "model": "coordinador.programaestudiante",
        "pk": 53,
        "fields": {
            "actual": true,
            "programa": 4,
            "estudiante": 53
        }
    },

    {
        "model": "coordinador.programaestudiante",
        "pk": 54,
        "fields": {
            "actual": true,
            "programa": 4,
            "estudiante": 54
        }
    },

    {
        "model": "coordinador.programaestudiante",
        "pk": 55,
        "fields": {
            "actual": true,
            "programa": 4,
            "estudiante": 55
        }
    },

    {
        "model": "coordinador.programaestudiante",
        "pk": 56,
        "fields": {
            "actual": true,
            "programa": 4,
            "estudiante": 56
        }
    },

    {
        "model": "coordinador.programaestudiante",
        "pk": 57,
        "fields": {
            "actual": true,
            "programa": 4,
            "estudiante": 57
        }
    },

    {
        "model": "coordinador.programaestudiante",
        "pk": 58,
        "fields": {
            "actual": true,
            "programa": 4,
            "estudiante": 58
        }
    },

    {
        "model": "coordinador.programaestudiante",
        "pk": 59,
        "fields": {
            "actual": true,
            "programa": 4,
            "estudiante": 59
        }
    },

    {
        "model": "coordinador.programaestudiante",
        "pk": 60,
        "fields": {
            "actual": true,
            "programa": 4,
            "estudiante": 60
        }
    },

    {
        "model": "coordinador.programaestudiante",
        "pk": 61,
        "fields": {
            "actual": true,
            "programa": 4,
            "estudiante": 61
        }
    },

    {
        "model": "coordinador.programaestudiante",
        "pk": 62,
        "fields": {
            "actual": true,
            "programa": 4,
            "estudiante": 62
        }
    },

    {
        "model": "coordinador.programaestudiante",
        "pk": 63,
        "fields": {
            "actual": true,
            "programa": 4,
            "estudiante": 63
        }
    },

    {
        "model": "coordinador.programaestudiante",
        "pk": 64,
        "fields": {
            "actual": true,
            "programa": 4,
            "estudiante": 64
        }
    },

    {
        "model": "coordinador.programaestudiante",
        "pk": 65,
        "fields": {
            "actual": true,
            "programa": 4,
            "estudiante": 65
        }
    },

    {
        "model": "coordinador.programaestudiante",
        "pk": 66,
        "fields": {
            "actual": true,
            "programa": 4,
            "estudiante": 66
        }
    },

    {
        "model": "coordinador.programaestudiante",
        "pk": 67,
        "fields": {
            "actual": true,
            "programa": 4,
            "estudiante": 67
        }
    },

    {
        "model": "coordinador.programaestudiante",
        "pk": 68,
        "fields": {
            "actual": true,
            "programa": 4,
            "estudiante": 68
        }
    },

    {
        "model": "coordinador.programaestudiante",
        "pk": 69,
        "fields": {
            "actual": true,
            "programa": 4,
            "estudiante": 69
        }
    },

    {
        "model": "coordinador.programaestudiante",
        "pk": 70,
        "fields": {
            "actual": true,
            "programa": 4,
            "estudiante": 70
        }
    },

    {
        "model": "coordinador.programaestudiante",
        "pk": 71,
        "fields": {
            "actual": true,
            "programa": 4,
            "estudiante": 71
        }
    },

    {
        "model": "coordinador.programaestudiante",
        "pk": 72,
        "fields": {
            "actual": true,
            "programa": 4,
            "estudiante": 72
        }
    },

    {
        "model": "coordinador.programaestudiante",
        "pk": 73,
        "fields": {
            "actual": true,
            "programa": 4,
            "estudiante": 73
        }
    },

    {
        "model": "coordinador.programaestudiante",
        "pk": 74,
        "fields": {
            "actual": true,
            "programa": 4,
            "estudiante": 74
        }
    },

    {
        "model": "coordinador.programaestudiante",
        "pk": 75,
        "fields": {
            "actual": true,
            "programa": 4,
            "estudiante": 75
        }
    },

    {
        "model": "coordinador.programaestudiante",
        "pk": 76,
        "fields": {
            "actual": true,
            "programa": 3,
            "estudiante": 76
        }
    },

    {
        "model": "coordinador.programaestudiante",
        "pk": 77,
        "fields": {
            "actual": true,
            "programa": 3,
            "estudiante": 77
        }
    },

    {
        "model": "coordinador.programaestudiante",
        "pk": 78,
        "fields": {
            "actual": true,
            "programa": 3,
            "estudiante": 78
        }
    },

    {
        "model": "coordinador.programaestudiante",
        "pk": 79,
        "fields": {
            "actual": true,
            "programa": 3,
            "estudiante": 79
        }
    },

    {
        "model": "coordinador.programaestudiante",
        "pk": 80,
        "fields": {
            "actual": true,
            "programa": 3,
            "estudiante": 80
        }
    },

    {
        "model": "coordinador.programaestudiante",
        "pk": 81,
        "fields": {
            "actual": true,
            "programa": 3,
            "estudiante": 81
        }
    },

    {
        "model": "coordinador.programaestudiante",
        "pk": 82,
        "fields": {
            "actual": true,
            "programa": 3,
            "estudiante": 82
        }
    },

    {
        "model": "coordinador.programaestudiante",
        "pk": 83,
        "fields": {
            "actual": true,
            "programa": 3,
            "estudiante": 83
        }
    },

    {
        "model": "coordinador.programaestudiante",
        "pk": 84,
        "fields": {
            "actual": true,
            "programa": 3,
            "estudiante": 84
        }
    },

    {
        "model": "coordinador.programaestudiante",
        "pk": 85,
        "fields": {
            "actual": true,
            "programa": 3,
            "estudiante": 85
        }
    },

    {
        "model": "coordinador.programaestudiante",
        "pk": 86,
        "fields": {
            "actual": true,
            "programa": 3,
            "estudiante": 86
        }
    },

    {
        "model": "coordinador.programaestudiante",
        "pk": 87,
        "fields": {
            "actual": true,
            "programa": 3,
            "estudiante": 87
        }
    },

    {
        "model": "coordinador.programaestudiante",
        "pk": 88,
        "fields": {
            "actual": true,
            "programa": 3,
            "estudiante": 88
        }
    },

    {
        "model": "coordinador.programaestudiante",
        "pk": 89,
        "fields": {
            "actual": true,
            "programa": 3,
            "estudiante": 89
        }
    },

    {
        "model": "coordinador.programaestudiante",
        "pk": 90,
        "fields": {
            "actual": true,
            "programa": 3,
            "estudiante": 90
        }
    },

    {
        "model": "coordinador.programaestudiante",
        "pk": 91,
        "fields": {
            "actual": true,
            "programa": 3,
            "estudiante": 91
        }
    },

    {
        "model": "coordinador.programaestudiante",
        "pk": 92,
        "fields": {
            "actual": true,
            "programa": 3,
            "estudiante": 92
        }
    },

    {
        "model": "coordinador.programaestudiante",
        "pk": 93,
        "fields": {
            "actual": true,
            "programa": 3,
            "estudiante": 93
        }
    },

    {
        "model": "coordinador.programaestudiante",
        "pk": 94,
        "fields": {
            "actual": true,
            "programa": 3,
            "estudiante": 94
        }
    },

    {
        "model": "coordinador.programaestudiante",
        "pk": 95,
        "fields": {
            "actual": true,
            "programa": 3,
            "estudiante": 95
        }
    },

    {
        "model": "coordinador.programaestudiante",
        "pk": 96,
        "fields": {
            "actual": true,
            "programa": 3,
            "estudiante": 96
        }
    },

    {
        "model": "coordinador.programaestudiante",
        "pk": 97,
        "fields": {
            "actual": true,
            "programa": 3,
            "estudiante": 97
        }
    },

    {
        "model": "coordinador.programaestudiante",
        "pk": 98,
        "fields": {
            "actual": true,
            "programa": 3,
            "estudiante": 98
        }
    },

    {
        "model": "coordinador.programaestudiante",
        "pk": 99,
        "fields": {
            "actual": true,
            "programa": 3,
            "estudiante": 99
        }
    },

    {
        "model": "coordinador.programaestudiante",
        "pk": 100,
        "fields": {
            "actual": true,
            "programa": 3,
            "estudiante": 100
        }
    },

    {
        "model": "coordinador.programaestudiante",
        "pk": 101,
        "fields": {
            "actual": true,
            "programa": 2,
            "estudiante": 101
        }
    },

    {
        "model": "coordinador.programaestudiante",
        "pk": 102,
        "fields": {
            "actual": true,
            "programa": 2,
            "estudiante": 102
        }
    },

    {
        "model": "coordinador.programaestudiante",
        "pk": 103,
        "fields": {
            "actual": true,
            "programa": 2,
            "estudiante": 103
        }
    },

    {
        "model": "coordinador.programaestudiante",
        "pk": 104,
        "fields": {
            "actual": true,
            "programa": 2,
            "estudiante": 104
        }
    },

    {
        "model": "coordinador.programaestudiante",
        "pk": 105,
        "fields": {
            "actual": true,
            "programa": 2,
            "estudiante": 105
        }
    },

    {
        "model": "coordinador.programaestudiante",
        "pk": 106,
        "fields": {
            "actual": true,
            "programa": 2,
            "estudiante": 106
        }
    },

    {
        "model": "coordinador.programaestudiante",
        "pk": 107,
        "fields": {
            "actual": true,
            "programa": 2,
            "estudiante": 107
        }
    },

    {
        "model": "coordinador.programaestudiante",
        "pk": 108,
        "fields": {
            "actual": true,
            "programa": 2,
            "estudiante": 108
        }
    },

    {
        "model": "coordinador.programaestudiante",
        "pk": 109,
        "fields": {
            "actual": true,
            "programa": 2,
            "estudiante": 109
        }
    },

    {
        "model": "coordinador.programaestudiante",
        "pk": 110,
        "fields": {
            "actual": true,
            "programa": 2,
            "estudiante": 110
        }
    },

    {
        "model": "coordinador.programaestudiante",
        "pk": 111,
        "fields": {
            "actual": true,
            "programa": 2,
            "estudiante": 111
        }
    },

    {
        "model": "coordinador.programaestudiante",
        "pk": 112,
        "fields": {
            "actual": true,
            "programa": 2,
            "estudiante": 112
        }
    },

    {
        "model": "coordinador.programaestudiante",
        "pk": 113,
        "fields": {
            "actual": true,
            "programa": 2,
            "estudiante": 113
        }
    },

    {
        "model": "coordinador.programaestudiante",
        "pk": 114,
        "fields": {
            "actual": true,
            "programa": 2,
            "estudiante": 114
        }
    },

    {
        "model": "coordinador.programaestudiante",
        "pk": 115,
        "fields": {
            "actual": true,
            "programa": 2,
            "estudiante": 115
        }
    },

    {
        "model": "coordinador.programaestudiante",
        "pk": 116,
        "fields": {
            "actual": true,
            "programa": 2,
            "estudiante": 116
        }
    },

    {
        "model": "coordinador.programaestudiante",
        "pk": 117,
        "fields": {
            "actual": true,
            "programa": 2,
            "estudiante": 117
        }
    },

    {
        "model": "coordinador.programaestudiante",
        "pk": 118,
        "fields": {
            "actual": true,
            "programa": 2,
            "estudiante": 118
        }
    },

    {
        "model": "coordinador.programaestudiante",
        "pk": 119,
        "fields": {
            "actual": true,
            "programa": 2,
            "estudiante": 119
        }
    },

    {
        "model": "coordinador.programaestudiante",
        "pk": 120,
        "fields": {
            "actual": true,
            "programa": 2,
            "estudiante": 120
        }
    },

    {
        "model": "coordinador.programaestudiante",
        "pk": 121,
        "fields": {
            "actual": true,
            "programa": 2,
            "estudiante": 121
        }
    },

    {
        "model": "coordinador.programaestudiante",
        "pk": 122,
        "fields": {
            "actual": true,
            "programa": 2,
            "estudiante": 122
        }
    },

    {
        "model": "coordinador.programaestudiante",
        "pk": 123,
        "fields": {
            "actual": true,
            "programa": 2,
            "estudiante": 123
        }
    },

    {
        "model": "coordinador.programaestudiante",
        "pk": 124,
        "fields": {
            "actual": true,
            "programa": 2,
            "estudiante": 124
        }
    },

    {
        "model": "coordinador.programaestudiante",
        "pk": 125,
        "fields": {
            "actual": true,
            "programa": 2,
            "estudiante": 125
        }
    },

    {
        "model": "coordinador.programaestudiante",
        "pk": 126,
        "fields": {
            "actual": true,
            "programa": 1,
            "estudiante": 126
        }
    },

    {
        "model": "coordinador.programaestudiante",
        "pk": 127,
        "fields": {
            "actual": true,
            "programa": 1,
            "estudiante": 127
        }
    },

    {
        "model": "coordinador.programaestudiante",
        "pk": 128,
        "fields": {
            "actual": true,
            "programa": 1,
            "estudiante": 128
        }
    },

    {
        "model": "coordinador.programaestudiante",
        "pk": 129,
        "fields": {
            "actual": true,
            "programa": 1,
            "estudiante": 129
        }
    },

    {
        "model": "coordinador.programaestudiante",
        "pk": 130,
        "fields": {
            "actual": true,
            "programa": 1,
            "estudiante": 130
        }
    },

    {
        "model": "coordinador.programaestudiante",
        "pk": 131,
        "fields": {
            "actual": true,
            "programa": 1,
            "estudiante": 131
        }
    },

    {
        "model": "coordinador.programaestudiante",
        "pk": 132,
        "fields": {
            "actual": true,
            "programa": 1,
            "estudiante": 132
        }
    },

    {
        "model": "coordinador.programaestudiante",
        "pk": 133,
        "fields": {
            "actual": true,
            "programa": 1,
            "estudiante": 133
        }
    },

    {
        "model": "coordinador.programaestudiante",
        "pk": 134,
        "fields": {
            "actual": true,
            "programa": 1,
            "estudiante": 134
        }
    },

    {
        "model": "coordinador.programaestudiante",
        "pk": 135,
        "fields": {
            "actual": true,
            "programa": 1,
            "estudiante": 135
        }
    },

    {
        "model": "coordinador.programaestudiante",
        "pk": 136,
        "fields": {
            "actual": true,
            "programa": 1,
            "estudiante": 136
        }
    },

    {
        "model": "coordinador.programaestudiante",
        "pk": 137,
        "fields": {
            "actual": true,
            "programa": 1,
            "estudiante": 137
        }
    },

    {
        "model": "coordinador.programaestudiante",
        "pk": 138,
        "fields": {
            "actual": true,
            "programa": 1,
            "estudiante": 138
        }
    },

    {
        "model": "coordinador.programaestudiante",
        "pk": 139,
        "fields": {
            "actual": true,
            "programa": 1,
            "estudiante": 139
        }
    },

    {
        "model": "coordinador.programaestudiante",
        "pk": 140,
        "fields": {
            "actual": true,
            "programa": 1,
            "estudiante": 140
        }
    },

    {
        "model": "coordinador.programaestudiante",
        "pk": 141,
        "fields": {
            "actual": true,
            "programa": 1,
            "estudiante": 141
        }
    },

    {
        "model": "coordinador.programaestudiante",
        "pk": 142,
        "fields": {
            "actual": true,
            "programa": 1,
            "estudiante": 142
        }
    },

    {
        "model": "coordinador.programaestudiante",
        "pk": 143,
        "fields": {
            "actual": true,
            "programa": 1,
            "estudiante": 143
        }
    },

    {
        "model": "coordinador.programaestudiante",
        "pk": 144,
        "fields": {
            "actual": true,
            "programa": 1,
            "estudiante": 144
        }
    },

    {
        "model": "coordinador.programaestudiante",
        "pk": 145,
        "fields": {
            "actual": true,
            "programa": 1,
            "estudiante": 145
        }
    },

    {
        "model": "coordinador.programaestudiante",
        "pk": 146,
        "fields": {
            "actual": true,
            "programa": 1,
            "estudiante": 146
        }
    },

    {
        "model": "coordinador.programaestudiante",
        "pk": 147,
        "fields": {
            "actual": true,
            "programa": 1,
            "estudiante": 147
        }
    },

    {
        "model": "coordinador.programaestudiante",
        "pk": 148,
        "fields": {
            "actual": true,
            "programa": 1,
            "estudiante": 148
        }
    },

    {
        "model": "coordinador.programaestudiante",
        "pk": 149,
        "fields": {
            "actual": true,
            "programa": 1,
            "estudiante": 149
        }
    },

    {
        "model": "coordinador.programaestudiante",
        "pk": 150,
        "fields": {
            "actual": true,
            "programa": 1,
            "estudiante": 150
        }
    }
]
