[
    {
        "model":"coordinador.tiporegistrocurso",
        "pk":1,
        "fields":{
            "nombre":"APROBADO",
            "descripcion":"Indica que un curso está aprobado",
            "estado" : true
        }
    },
    {
        "model":"coordinador.tiporegistrocurso",
        "pk":2,
        "fields":{
            "nombre":"CURSADO",
            "descripcion":"Indica que un curso ya fue cursado",
            "estado" : true
        }
    },
    {
        "model":"coordinador.tiporegistrocurso",
        "pk":3,
        "fields":{
            "nombre":"PLANEADO",
            "descripcion":"Indica que un curso está planeado",
            "estado" : true
        }
    },
    {
        "model":"coordinador.tiporegistrocurso",
        "pk":4,
        "fields":{
            "nombre":"EN CURSO",
            "descripcion":"Indica que un curso está siendo cursado",
            "estado" : true
        }
    }
]